.....................
----------------------------------------------------------------------
Ran 21 tests in 6.165s

OK
Name             Stmts   Miss Branch BrPart  Cover   Missing
------------------------------------------------------------
Collatz.py          42      0     18      1    98%   56->68
TestCollatz.py      74      0      0      0   100%
------------------------------------------------------------
TOTAL              116      0     18      1    99%
