1 10 20
100 200 125
201 210 89
900 1000 174
697 1046 179
724 1100 179
626 1719 182
342 1756 182
589 1842 182
183 1922 182
18 1175 182
959 1195 182
50 1072 179
302 770 171
278 1685 182
917 556 179
539 1799 182
29 716 171
298 1451 182
813 1716 182
614 1676 182
793 787 78
435 581 142
681 1995 182
415 1470 182
268 1963 182
886 1673 182
925 1715 182
225 1352 182
72 1495 182
590 1162 182
423 1179 182
574 681 145
321 1543 182
953 1769 182
847 875 179
797 837 135
919 1156 174
47 1888 182
607 1211 182
976 1059 169
363 1603 182
229 1779 182
736 1462 182
647 760 171
909 504 179
648 1626 182
995 1647 182
907 1653 182
755 856 153
604 973 179
333 631 142
535 1648 182
923 1475 182
2946 3616 199
3860 4333 202
3076 4658 238
3871 3691 238
2908 4486 238
3551 3922 238
2746 3499 217
3043 4061 238
3356 4956 238
3979 4044 189
2025 3662 217
3391 3557 181
2215 4240 238
3976 4728 215
3001 4416 238
3820 3107 238
2666 4502 238
2612 3225 217
3033 3935 238
2714 3252 217
2659 3279 217
3103 3594 199
3890 3179 238
3933 4039 189
2883 4534 238
3041 4547 238
3109 4341 238
3308 3671 194
2209 3816 238
2077 4442 238
2712 3804 238
3701 3512 207
2030 3936 238
3573 4335 238
3365 4902 238
3395 4250 238
3954 4111 189
3774 4606 215
2865 3953 238
3533 3157 199
3953 3767 189
2449 4049 238
2927 4712 238
3151 3919 238
3724 3983 189
3795 4502 215
3196 4771 238
3868 3763 176
2375 4776 238
3237 4928 238
567800 950945 525
757289 6254 509
849486 102689 525
506317 742403 509
756272 242834 509
640527 18219 509
261905 360543 441
355198 492036 449
277180 229152 443
186175 382151 443


